C:\Users\dracon\workspace\movie-employees\employees-service\src\main\java\com\livecron\employees\service\config\SwaggerConfig.java
C:\Users\dracon\workspace\movie-employees\employees-service\src\main\java\com\livecron\employees\service\model\domain\Employee.java
C:\Users\dracon\workspace\movie-employees\employees-service\src\main\java\com\livecron\employees\service\EmployeeServiceAplication.java
C:\Users\dracon\workspace\movie-employees\employees-service\src\main\java\com\livecron\employees\service\service\EmployeeGetAllService.java
C:\Users\dracon\workspace\movie-employees\employees-service\src\main\java\com\livecron\employees\service\service\EmployeeCreateService.java
C:\Users\dracon\workspace\movie-employees\employees-service\src\main\java\com\livecron\employees\service\controller\EmployeeController.java
C:\Users\dracon\workspace\movie-employees\employees-service\src\main\java\com\livecron\employees\service\model\repository\EmployeeRepository.java
